{
  "project_info": {
    "project_id": "myhr-1228",
    "project_number": "790673734882",
    "name": "MyHR"
  },
  "client": [
    {
      "client_info": {
        "mobilesdk_app_id": "1:790673734882:android:300399690ce15d0b",
        "client_id": "android:com.elantix.myhr",
        "client_type": 1,
        "android_client_info": {
          "package_name": "com.elantix.myhr",
          "certificate_hash": []
        }
      },
      "oauth_client": [
        {
          "client_id": "790673734882-vo6kdqjead5ff9ksho180dsh9jtdrt6i.apps.googleusercontent.com",
          "client_type": 1,
          "android_info": {
            "package_name": "com.elantix.myhr",
            "certificate_hash": "89B896564EC2C612884FFB509A20B9278D59FFB1"
          }
        },
        {
          "client_id": "790673734882-fjr9rgppsn0um1qvkslg2du9ps2eg8l7.apps.googleusercontent.com",
          "client_type": 3
        }
      ],
      "api_key": [],
      "services": {
        "analytics_service": {
          "status": 1
        },
        "cloud_messaging_service": {
          "status": 1,
          "apns_config": []
        },
        "appinvite_service": {
          "status": 1,
          "other_platform_oauth_client": []
        },
        "google_signin_service": {
          "status": 2
        },
        "ads_service": {
          "status": 1
        }
      }
    }
  ],
  "client_info": [],
  "ARTIFACT_VERSION": "1"
}